{
  "message": "_Accurate Stance_, _Guarded Stance_, _Reckless Stance_ and _Strength Stance_ buffs along with _Spatial Tear_ sorcerer ability had invalid change and max charges formulas corrected.",
  "type": "Compendium",
  "issue": ""
}
